\relax 
\catcode `"\active 
\babel@aux{polish}{}
\babel@aux{polish}{}
\@writefile{lol}{\contentsline {lstlisting}{Case1.py}{9}}
\newlabel{latex}{{}{11}}
\@writefile{toc}{\contentsline {paragraph}{}{11}}
